<?xml version="1.0" standalone="no"?>
<!DOCTYPE svg PUBLIC "-//W3C//DTD SVG 1.1//EN" "http://www.w3.org/Graphics/SVG/1.1/DTD/svg11.dtd" >
<svg>
<metadata>
Created by FontForge 20090622 at Thu Mar  2 07:10:22 2017
 By deploy user
Copyright c 1992 by CC Font ManipSystems
</metadata>
<defs>
<font id="FuturaMedium" horiz-adv-x="914" >
  <font-face 
    font-family="Futura-Medium"
    font-weight="400"
    font-stretch="normal"
    units-per-em="2048"
    panose-1="2 11 5 0 0 0 0 0 0 0"
    ascent="1638"
    descent="-410"
    x-height="848"
    cap-height="1350"
    bbox="-302 -443 1934 1708"
    underline-thickness="50"
    underline-position="-75"
    unicode-range="U+0020-U+203A"
  />
<missing-glyph horiz-adv-x="1536" 
d="M256 0v1280h1024v-1280h-1024zM1248 32v1216h-960v-1216h960z" />
    <glyph glyph-name=".notdef" horiz-adv-x="1536" 
d="M256 0v1280h1024v-1280h-1024zM1248 32v1216h-960v-1216h960z" />
    <glyph glyph-name=".null" horiz-adv-x="0" 
 />
    <glyph glyph-name="nonmarkingreturn" horiz-adv-x="0" 
 />
    <glyph glyph-name="space" unicode=" " horiz-adv-x="436" 
 />
    <glyph glyph-name="exclam" unicode="!" horiz-adv-x="305" 
d="M176 221q-55 0 -86 -35t-31 -83t32 -83q31 -37 85 -37t83.5 35.5t29.5 84.5q0 47 -29.5 82.5t-83.5 35.5zM90 316h181v1034h-181v-1034z" />
    <glyph glyph-name="quotedbl" unicode="&#x22;" horiz-adv-x="658" 
d="M0 899l129 -47l240 459l-176 68zM293 899l131 -47l238 459l-176 68z" />
    <glyph glyph-name="dollar" unicode="$" horiz-adv-x="875" 
d="M-5 170q80 -94 164.5 -138.5t213.5 -60.5v-229h121v229q114 23 197.5 80t127 143.5t43.5 196.5q0 106 -49 180q-49 75 -125.5 122t-185.5 92q-112 44 -169.5 76.5t-79.5 66.5t-22 86q0 83 56.5 132.5t148.5 49.5q64 0 112 -25.5t122 -97.5l129 140q-80 79 -149 115.5
t-156 45.5v197h-121v-197q-106 -14 -181.5 -63.5t-114.5 -130.5q-41 -82 -41 -186q0 -128 71.5 -214.5t226.5 -144.5l168 -70q160 -64 160 -196q0 -95 -69.5 -159t-168.5 -64q-166 0 -297 161z" />
    <glyph glyph-name="percent" unicode="%" horiz-adv-x="1270" 
d="M314 1358q-85 0 -155 -41.5t-110.5 -114.5t-40.5 -163q0 -86 41.5 -158.5t113.5 -115t159 -42.5q84 0 154.5 41.5t111.5 113t41 156.5q0 89 -42 164t-114 117.5t-159 42.5zM322 1209q73 0 113 -49.5t40 -116.5q0 -70 -41.5 -120t-115.5 -50q-75 0 -118 49t-43 117t45 119
q43 51 120 51zM184 -56h133l213 396l543 1039h-118l-222 -402zM955 602q-85 0 -156 -41t-111.5 -113t-40.5 -161q0 -131 91 -221.5t223 -90.5q129 0 217 89q88 87 88 219q0 87 -41 160.5t-112.5 116t-157.5 42.5zM961 457q72 0 113 -50q40 -49 40 -118t-41 -119.5
t-116 -50.5t-118 50t-43 118q0 67 45 118.5t120 51.5z" />
    <glyph glyph-name="ampersand" unicode="&#x26;" horiz-adv-x="1180" 
d="M819 133l119 -133h242l-223 258q83 81 161 199l-127 121q-21 -32 -42.5 -58.5t-59.5 -68.5t-53 -60l-268 304q119 80 168 156.5t49 182.5q0 86 -39 153q-39 68 -108.5 105t-155.5 37q-88 0 -160.5 -38t-113 -105.5t-40.5 -151.5q0 -81 28 -143.5t105 -155.5
q-99 -60 -160 -120t-88.5 -127t-27.5 -152q0 -102 53 -187q54 -85 147 -133.5t207 -48.5q99 0 200 43t187 123zM703 266q-122 -124 -267 -124q-95 0 -158 58q-63 59 -63 148q0 74 45.5 132t147.5 122zM465 828q-113 118 -113 215q0 58 35 89q33 32 82 32q54 0 94.5 -36.5
t40.5 -97.5q0 -120 -139 -202z" />
    <glyph glyph-name="quotesingle" unicode="'" horiz-adv-x="346" 
d="M-13 899l132 -47l238 459l-177 68z" />
    <glyph glyph-name="parenleft" unicode="(" horiz-adv-x="346" 
d="M219 -377l146 57q-180 446 -180 851q0 207 43 410q44 202 137 417l-146 59q-100 -217 -151.5 -450t-51.5 -479q0 -105 11 -204.5t34.5 -202t60 -209t87.5 -225.5z" />
    <glyph glyph-name="parenright" unicode=")" horiz-adv-x="346" 
d="M-17 1358q171 -390 171 -825q0 -433 -171 -853l146 -57q65 150 108 302q44 153 66.5 308.5t22.5 311.5q0 149 -21.5 297t-65.5 292t-110 283z" />
    <glyph glyph-name="asterisk" unicode="*" horiz-adv-x="568" 
d="M12 1006l58 -88l162 116v-194h110v194l156 -116l57 88l-178 127l178 127l-53 82l-160 -115v195h-110v-195l-166 115l-54 -82l184 -127z" />
    <glyph glyph-name="comma" unicode="," horiz-adv-x="258" 
d="M-103 -242l132 -53l242 461l-177 64z" />
    <glyph glyph-name="hyphen" unicode="-" horiz-adv-x="482" 
d="M12 391h461v166h-461v-166z" />
    <glyph glyph-name="period" unicode="." horiz-adv-x="258" 
d="M127 207q-53 0 -85 -35.5t-32 -81.5q0 -47 32 -83t85 -36t83 35t30 82q0 48 -30.5 83.5t-82.5 35.5z" />
    <glyph glyph-name="slash" unicode="/" horiz-adv-x="699" 
d="M-4 0h154l129 312l424 1038h-154l-133 -316z" />
    <glyph glyph-name="zero" unicode="0" horiz-adv-x="1004" 
d="M502 1379q-141 0 -251 -91q-109 -91 -170 -253t-61 -365q0 -199 61.5 -359t172.5 -249q110 -91 248 -91q141 0 250.5 90.5t170 252t60.5 364.5q0 201 -61 361t-171 250t-249 90zM502 1200q141 0 217 -139t76 -395q0 -161 -35 -278q-35 -116 -100.5 -177t-157.5 -61
q-141 0 -217 137.5t-76 394.5q0 160 35 277t101 179t157 62z" />
    <glyph glyph-name="one" unicode="1" horiz-adv-x="482" 
d="M-21 1180l87 170h370v-1350h-178v1180h-279z" />
    <glyph glyph-name="two" unicode="2" horiz-adv-x="828" 
d="M-21 0v25l247 283l149.5 179.5t91 115t25.5 35.5q55 76 100 159q41 79 41 168q0 100 -54 167.5t-163 67.5q-95 0 -155.5 -61.5t-75.5 -175.5h-181q8 125 60.5 220t143.5 145q90 51 208 51q117 0 212 -48.5t149.5 -133.5t54.5 -191q0 -99 -38.5 -202t-110.5 -198
q-130 -180 -369 -449h498l-1 -157h-832z" />
    <glyph glyph-name="three" unicode="3" horiz-adv-x="875" 
d="M-4 391q6 -89 21 -143t49 -106q62 -82 156 -125.5t196 -43.5q115 0 218 51q104 50 167 144q64 93 64 219q0 289 -254 332q110 28 160.5 98.5t50.5 192.5q0 111 -48 195q-47 84 -136 129t-208 45q-113 0 -200.5 -45t-137.5 -129q-50 -83 -57 -195h178q25 190 217 190
q97 0 154 -54q58 -54 58 -148q0 -201 -267 -213v-154q306 -7 306 -248q0 -108 -70 -172q-69 -65 -181 -65q-227 0 -252 245h-184z" />
    <glyph glyph-name="four" unicode="4" 
d="M-21 283l789 1130v-981h162v-149h-162v-283h-164v283h-625zM228 432h376v531z" />
    <glyph glyph-name="five" unicode="5" horiz-adv-x="875" 
d="M-17 187l103 129q120 -166 287 -166q87 0 158 42.5t111 115t40 159.5q0 90 -43.5 155t-116.5 99q-72 33 -153 33q-75 0 -142 -28q-38 -16 -63 -34t-47 -37.5t-27 -19.5h-47l162 714h603v-161l-473 1l-73 -328q87 49 187 49q81 0 157 -33q77 -35 136.5 -95.5t94 -140.5
t34.5 -170q0 -136 -64.5 -249.5t-175 -179.5t-244.5 -66q-117 0 -230 58q-113 59 -174 153z" />
    <glyph glyph-name="six" unicode="6" 
d="M379 811l406 539h-217l-400 -543q-86 -109 -123.5 -205t-37.5 -198q0 -126 58.5 -227.5t161.5 -157.5t232 -56q125 0 227 59q103 58 161 160t58 230q0 86 -30.5 163.5t-85.5 136.5t-126.5 92.5t-150.5 33.5q-68 0 -133 -27zM459 695q82 0 140 -40t87 -105.5t29 -137.5
q0 -114 -67.5 -198.5t-188.5 -84.5q-115 0 -189 76.5t-74 198.5q0 83 33.5 149.5t94.5 103.5q60 38 135 38z" />
    <glyph glyph-name="seven" unicode="7" 
d="M-13 1180v170h955l-688 -1387l-156 66l568 1151h-679z" />
    <glyph glyph-name="eight" unicode="8" 
d="M674 711q101 41 149 112q48 72 48 183q0 103 -53 188t-147 133q-93 47 -210 47q-120 0 -213 -47t-144 -133t-51 -196q0 -107 52 -186t138 -99q-218 -89 -218 -340q0 -113 55 -204q56 -91 156 -142.5t225 -51.5q123 0 221.5 50.5t152.5 141.5t54 206q0 131 -54.5 217.5
t-160.5 120.5zM459 627q73 0 125.5 -36t79 -93.5t26.5 -122.5q0 -61 -24 -114t-74.5 -86t-122.5 -33q-68 0 -126 32t-91.5 88t-33.5 125q0 65 32.5 120t88.5 87.5t120 32.5zM459 1213q91 0 153 -61.5t62 -153.5q0 -66 -30.5 -114.5t-80.5 -72.5t-104 -24q-55 0 -103 23.5
t-78.5 70.5t-30.5 113q0 62 27.5 112t76 78.5t108.5 28.5z" />
    <glyph glyph-name="nine" unicode="9" 
d="M538 539l-406 -539h213l400 539q84 112 122 208t38 195q0 128 -57 229q-58 102 -160 159t-229 57t-230.5 -59t-161.5 -161q-60 -103 -60 -229q0 -112 52.5 -211.5t141.5 -160t190 -60.5q80 0 147 33zM459 1217q80 0 138 -40t87 -104.5t29 -136.5t-29 -137.5t-86.5 -105
t-138.5 -39.5q-82 0 -142 39t-89.5 103t-29.5 136q0 75 30 140t89.5 105t141.5 40z" />
    <glyph glyph-name="colon" unicode=":" horiz-adv-x="305" 
d="M168 207q-54 0 -85.5 -35t-31.5 -82q0 -48 31.5 -83.5t85.5 -35.5t83.5 34.5t29.5 82.5q0 49 -30 84q-29 35 -83 35zM164 744q-53 0 -83 -35t-30 -82q0 -49 30 -84t83 -35q55 0 85 34.5t30 84.5q0 48 -30 82.5t-85 34.5z" />
    <glyph glyph-name="semicolon" unicode=";" horiz-adv-x="305" 
d="M193 744q-54 0 -84 -35q-31 -34 -31 -82q0 -50 30.5 -84.5t84.5 -34.5q55 0 87 34.5t32 84.5q0 48 -32 82q-32 35 -87 35zM-51 -246l125 -51l244 459l-176 68z" />
    <glyph glyph-name="less" unicode="&#x3c;" horiz-adv-x="613" 
d="M-17 471l249 -374l118 61l-205 313l205 305l-114 72zM424 471l207 305l-113 72l-252 -377l244 -374l119 61z" />
    <glyph glyph-name="greater" unicode="&#x3e;" horiz-adv-x="613" 
d="M-17 776l205 -305l-201 -313l116 -61l247 374l-251 377zM266 158l113 -61l252 374l-254 377l-111 -72l203 -305z" />
    <glyph glyph-name="question" unicode="?" horiz-adv-x="699" 
d="M353 211q-53 0 -84.5 -36.5t-31.5 -84.5t30.5 -83.5t85.5 -35.5q57 0 87.5 35t30.5 84t-31 85t-87 36zM16 1002h180q19 182 154 182q63 0 101 -39q39 -38 39 -102q0 -53 -30 -85.5t-103 -62.5q-44 -19 -86 -34.5t-43 -16.5q-85 -33 -133 -100t-48 -158
q0 -130 83.5 -209.5t219.5 -79.5q140 0 222 80q83 79 86 221h-185q-12 -133 -120 -133q-47 0 -80.5 31t-33.5 78q0 50 32 81.5t108 57.5q168 60 235.5 131.5t67.5 189.5q0 95 -41 166q-42 72 -117 111t-171 39q-162 0 -248 -88t-89 -260z" />
    <glyph glyph-name="A" unicode="A" horiz-adv-x="1270" 
d="M-9 0l652 1417l635 -1417h-217l-147 348h-564l-149 -348h-210zM407 499h445l-221 527z" />
    <glyph glyph-name="B" unicode="B" horiz-adv-x="828" 
d="M33 0v1349h332q167 0 261.5 -91t94.5 -248q0 -110 -54.5 -187t-148.5 -96q144 -11 226 -113.5t82 -238.5q0 -61 -18.5 -119.5t-57.5 -110.5t-92 -85q-94 -60 -271 -60h-354zM223 157h146q262 0 262 230q0 232 -270 232h-138v-462zM223 781h107q94 0 148 54q52 54 52 150
q0 97 -54.5 150t-153.5 53h-99v-407z" />
    <glyph glyph-name="C" unicode="C" horiz-adv-x="1094" 
d="M1073 72v233q-171 -147 -360 -147q-134 0 -245.5 67t-175.5 184q-65 118 -65 261q0 148 64 266.5t176 185t250 66.5q102 0 184 -33t172 -108v233q-96 53 -179.5 76t-186.5 23q-142 0 -267 -54t-218 -150.5t-146 -226.5q-52 -130 -52 -278q0 -196 90 -356
q88 -160 244 -251.5t345 -91.5q207 0 370 101z" />
    <glyph glyph-name="D" unicode="D" horiz-adv-x="1094" 
d="M41 0v1350h367q154 0 280 -47q126 -49 213.5 -137t134 -213t46.5 -279q0 -197 -81 -350q-80 -154 -227.5 -239t-337.5 -85h-395zM232 174h133q122 0 217.5 33t162.5 97t101 155q34 92 34 207q0 118 -35 213q-34 94 -101 160q-67 67 -163 102t-216 35h-133v-1002z" />
    <glyph glyph-name="E" unicode="E" horiz-adv-x="789" 
d="M51 0v1350h721v-170h-528v-365h524v-170h-524v-479h528v-166h-721z" />
    <glyph glyph-name="F" unicode="F" horiz-adv-x="738" 
d="M51 0v1350h670v-170h-477v-365h473v-170h-473v-645h-193z" />
    <glyph glyph-name="G" unicode="G" horiz-adv-x="1356" 
d="M1338 695q-6 -195 -36.5 -302t-105.5 -194q-90 -112 -221 -170.5t-276 -58.5q-141 0 -272 54t-226 154q-181 181 -181 476q0 200 91.5 366.5t251 262.5t350.5 96q114 0 202 -25.5t169.5 -82.5t177.5 -157l-135 -137q-78 81 -141 127.5t-127 67t-146 20.5
q-136 0 -247.5 -67.5t-174.5 -188.5t-63 -270q0 -112 34.5 -207t99 -163.5t153 -105t192.5 -36.5q111 0 202 45t147 128q57 82 71 191h-328v177h539z" />
    <glyph glyph-name="H" unicode="H" horiz-adv-x="1094" 
d="M51 0v1350h193v-522h608v522h193v-1350h-193v662h-608v-662h-193z" />
    <glyph glyph-name="I" unicode="I" horiz-adv-x="258" 
d="M33 0v1350h190v-1350h-190z" />
    <glyph glyph-name="J" unicode="J" horiz-adv-x="613" 
d="M-9 76q100 -109 257 -109q82 0 143 32q61 33 99 90t56 128q17 72 17 152v981h-194v-993q0 -114 -30 -162.5t-103 -48.5q-38 0 -68 16q-29 16 -65 55z" />
    <glyph glyph-name="K" unicode="K" horiz-adv-x="1004" 
d="M33 0v1350h190v-539l502 539h242l-602 -633l659 -717h-252l-549 606v-606h-190z" />
    <glyph glyph-name="L" unicode="L" horiz-adv-x="658" 
d="M37 0v1350h191v-1188h442v-162h-633z" />
    <glyph glyph-name="M" unicode="M" horiz-adv-x="1534" 
d="M3 0l298 1430l475 -1082l476 1082l286 -1430h-196l-166 873l-408 -920l-407 924l-160 -877h-198z" />
    <glyph glyph-name="N" unicode="N" horiz-adv-x="1270" 
d="M37 0v1417l1007 -1021v954h191v-1397l-1007 1018v-971h-191z" />
    <glyph glyph-name="O" unicode="O" horiz-adv-x="1448" 
d="M721 1383q-194 0 -354 -95q-161 -94 -254 -258q-93 -163 -93 -360q0 -190 94.5 -352t255 -256.5t347.5 -94.5q200 0 364.5 93t257.5 254t93 356q0 197 -93 360.5t-256 258t-362 94.5zM721 1196q136 0 250.5 -69t181 -188t66.5 -261q0 -146 -65.5 -267t-179.5 -191
t-253 -70q-132 0 -246 70q-114 71 -180 192q-68 120 -68 262q0 143 66.5 263t180 189.5t247.5 69.5z" />
    <glyph glyph-name="P" unicode="P" horiz-adv-x="828" 
d="M43 0v1350h406q111 0 195 -47t129.5 -132.5t45.5 -199.5q0 -113 -44.5 -203t-126.5 -141q-83 -62 -275 -62h-137v-565h-193zM236 731h117q267 0 267 236q0 111 -63 162q-65 51 -204 51h-117v-449z" />
    <glyph glyph-name="Q" unicode="Q" horiz-adv-x="1448" 
d="M1123 88l172 -164h251l-294 279q97 117 139 222q41 106 41 245q0 197 -93 360.5t-256 258t-362 94.5q-144 0 -272.5 -54.5t-225 -152.5t-150 -227.5t-53.5 -274.5q0 -194 93.5 -355t256 -254.5t355.5 -93.5q215 0 398 117zM971 221q-108 -71 -233 -71q-130 0 -248 71
t-190.5 193t-72.5 260q0 143 66.5 263t180 189.5t247.5 69.5q112 0 204 -44t157 -120t100 -172t35 -196q0 -183 -111 -328l-155 156h-261z" />
    <glyph glyph-name="R" unicode="R" horiz-adv-x="875" 
d="M37 0v1349h359q178 0 292.5 -96.5t114.5 -275.5q0 -86 -25.5 -156t-73.5 -120q-48 -49 -116 -76.5t-152 -30.5l457 -594h-235l-430 582v-582h-191zM228 723h141q116 0 179.5 63t63.5 177q0 120 -60.5 172.5t-194.5 52.5h-129v-465z" />
    <glyph glyph-name="S" unicode="S" horiz-adv-x="875" 
d="M-5 170q93 -102 194 -150.5t227 -48.5q129 0 231 54t158.5 150t56.5 216q0 126 -63 210q-63 85 -207 143q-31 14 -106.5 41t-128 54t-87.5 70t-35 105q0 83 57 132.5t149 49.5q66 0 107.5 -22.5t125.5 -100.5l125 140q-93 90 -176 128q-82 38 -187 38
q-120 0 -210.5 -48.5t-140 -136.5t-49.5 -205q0 -65 17.5 -116t54.5 -95t92.5 -78.5t133.5 -64.5l168 -70q164 -66 164 -196q0 -63 -33 -114t-88.5 -80t-120.5 -29q-160 0 -297 161z" />
    <glyph glyph-name="T" unicode="T" horiz-adv-x="828" 
d="M8 1176v174h807v-174h-305v-1176h-193v1176h-309z" />
    <glyph glyph-name="U" unicode="U" horiz-adv-x="1051" 
d="M1012 1350h-193v-893q0 -146 -75 -226.5t-209 -80.5q-142 0 -221 80q-78 81 -78 227v893h-193v-922q0 -104 34 -191q34 -86 99 -149q64 -62 153 -96q89 -33 198 -33q143 0 253 58.5t171 165t61 245.5v922z" />
    <glyph glyph-name="V" unicode="V" horiz-adv-x="1141" 
d="M-13 1350h218l371 -973l375 973h202l-590 -1422z" />
    <glyph glyph-name="W" unicode="W" horiz-adv-x="1749" 
d="M-17 1350h217l331 -938l350 1005l346 -1005l332 938h209l-553 -1422l-336 990l-352 -990z" />
    <glyph glyph-name="X" unicode="X" horiz-adv-x="1051" 
d="M-4 0h215l303 549l314 -549h223l-426 713l359 637h-208l-262 -469l-266 469h-219l375 -631z" />
    <glyph glyph-name="Y" unicode="Y" horiz-adv-x="1051" 
d="M0 1350l428 -748v-602h197v602l426 748h-215l-305 -569l-303 569h-228z" />
    <glyph glyph-name="Z" unicode="Z" horiz-adv-x="963" 
d="M-5 0l674 1180h-571l1 170h872l-670 -1184h650v-166h-956z" />
    <glyph glyph-name="bracketleft" unicode="[" horiz-adv-x="436" 
d="M50 -377h374v119h-189v524v1035h189v116h-374v-759v-1035z" />
    <glyph glyph-name="bracketright" unicode="]" horiz-adv-x="436" 
d="M7 1301h189v-520v-1039h-189v-119h372v760v1034h-372v-116z" />
    <glyph glyph-name="underscore" unicode="_" horiz-adv-x="789" 
d="M-8 -238v-53h807v53h-807z" />
    <glyph glyph-name="grave" unicode="`" horiz-adv-x="305" 
d="M-254 1264l237 -254h132l-144 254h-225z" />
    <glyph glyph-name="a" unicode="a" 
d="M686 103v-103h181v848h-181v-104q-84 129 -258 129q-113 0 -205.5 -58t-145 -160t-52.5 -227q0 -128 51 -232q51 -103 140.5 -162t199.5 -59q86 0 157 33.5t113 94.5zM455 713q78 0 133 -41t84 -107q27 -67 27 -141q0 -76 -28.5 -144t-83.5 -109.5t-132 -41.5
q-78 0 -134.5 41.5t-85 108.5t-28.5 141q0 75 28.5 143t85 109t134.5 41z" />
    <glyph glyph-name="b" unicode="b" 
d="M469 713q-80 0 -138 -41q-57 -42 -86 -110t-29 -142q0 -118 64 -204q65 -87 181 -87q80 0 137 42.5t86 110.5q28 69 28 144q0 74 -28 140q-27 66 -83 106q-55 41 -132 41zM51 0v1434h181v-690q90 129 258 129q125 0 215.5 -65t136 -169.5t45.5 -222.5q0 -114 -44 -215.5
t-131 -163t-210 -61.5q-175 0 -270 127v-102z" />
    <glyph glyph-name="c" unicode="c" horiz-adv-x="738" 
d="M725 43v215q-122 -112 -256 -112q-79 0 -137 33q-59 34 -90 98t-31 151q0 129 78.5 201t189.5 72q143 0 246 -107v213q-109 68 -241 68q-89 0 -173 -33q-83 -32 -149 -94q-65 -61 -104 -146q-38 -85 -38 -186q0 -127 55 -229q54 -101 150 -158.5t216 -57.5q137 0 284 72z
" />
    <glyph glyph-name="d" unicode="d" 
d="M690 103q-95 -127 -266 -127q-113 0 -205 58t-143.5 162t-51.5 232q0 125 53 227t146 160t209 58q168 0 258 -129v690h181v-1433h-181v102zM455 713q-78 0 -134.5 -40.5t-85 -107t-28.5 -141.5q0 -118 67.5 -206.5t184.5 -88.5q114 0 177 86.5t63 204.5q0 75 -28.5 142.5
t-83.5 109t-132 41.5z" />
    <glyph glyph-name="e" unicode="e" horiz-adv-x="828" 
d="M832 217l-146 95q-99 -183 -254 -183q-70 0 -123.5 32t-85 92t-34.5 138h639q-6 127 -24 198t-62 128q-55 77 -139 118.5t-187 41.5q-92 0 -168 -32.5t-130.5 -93t-84 -147t-29.5 -188.5q0 -99 29.5 -182.5t85 -143.5t133.5 -92q77 -31 172 -31q259 0 408 250zM205 530
q40 187 223 187q84 0 138 -48t70 -139h-431z" />
    <glyph glyph-name="f" unicode="f" horiz-adv-x="568" 
d="M4 699h152v-699h182l1 699h225v149h-225v238q0 186 120 186q47 0 109 -37v182q-62 29 -132 29q-280 0 -280 -364v-234h-152v-149z" />
    <glyph glyph-name="g" unicode="g" 
d="M687 103v-120q0 -262 -232 -262q-92 0 -141 39q-48 39 -66 125h-190q5 -102 63 -177q57 -74 147 -112.5t191 -38.5q108 0 205 45t151 127q56 86 56 258v861h-185v-108q-83 133 -254 133q-117 0 -210.5 -58.5t-145 -162t-51.5 -232.5q0 -127 52 -229q51 -101 143 -158.5
t208 -57.5q89 0 148 29t111 99zM459 713q77 0 132 -40.5t82.5 -107t27.5 -139.5q0 -75 -28.5 -142.5t-85 -109t-134.5 -41.5t-134 40.5t-84 106.5t-28 138q0 119 67 207t185 88z" />
    <glyph glyph-name="h" unicode="h" horiz-adv-x="789" 
d="M37 0v1430h178v-690q58 73 110 101t130 28q144 0 219 -90q76 -89 76 -257v-522h-182v475q0 220 -164 220q-86 0 -137.5 -71t-51.5 -192v-432h-178z" />
    <glyph glyph-name="i" unicode="i" horiz-adv-x="258" 
d="M37 0h179l-1 848h-178v-848zM129 1252q-54 0 -84.5 -35t-30.5 -82q0 -48 30.5 -82.5t84.5 -34.5q52 0 81 35q30 34 30 82q0 47 -29.5 82t-81.5 35z" />
    <glyph glyph-name="j" unicode="j" horiz-adv-x="258" 
d="M37 -408v1256h178v-1256h-178zM127 1252q51 0 80 -35t29 -82q0 -48 -29 -82.5t-80 -34.5q-53 0 -85 35.5t-32 81.5t32 81q32 36 85 36z" />
    <glyph glyph-name="k" unicode="k" horiz-adv-x="789" 
d="M47 0v1430h181v-891l294 309h238l-387 -377l420 -471h-244l-321 387v-387h-181z" />
    <glyph glyph-name="l" unicode="l" horiz-adv-x="258" 
d="M41 0v1430h178v-1430h-178z" />
    <glyph glyph-name="m" unicode="m" horiz-adv-x="1227" 
d="M47 0h180v432q0 123 45 191q43 67 119 67q136 0 136 -202v-488h179v432q0 258 165 258q133 0 133 -202v-488h180v574q0 295 -274 295q-144 0 -240 -125q-81 121 -217 121q-65 0 -124.5 -31t-101.5 -90v104h-180v-848z" />
    <glyph glyph-name="n" unicode="n" horiz-adv-x="789" 
d="M37 0h178v432q0 121 51.5 192t137.5 71q80 0 122 -54t42 -153v-488h182v539q0 154 -78.5 242t-216.5 88q-77 0 -130.5 -29.5t-109.5 -99.5v108h-178v-848z" />
    <glyph glyph-name="o" unicode="o" 
d="M459 877q-131 0 -234 -57.5t-160 -160t-57 -231.5q0 -132 56.5 -236.5t158.5 -161.5q102 -59 232 -59q133 0 238 56.5t163 159.5t58 233q0 132 -58 236.5t-162 162.5t-235 58zM461 713q82 0 141 -41t88.5 -108t29.5 -142q0 -73 -29.5 -140t-88 -108t-141.5 -41
q-84 0 -144 41.5t-90 107t-30 140.5q0 76 30 142t90 107.5t144 41.5z" />
    <glyph glyph-name="p" unicode="p" 
d="M465 713q-117 0 -183 -87.5t-66 -205.5q0 -75 28 -142t83 -108t132 -41q80 0 136.5 42t84.5 110.5t28 144.5q0 73 -27.5 139.5t-82.5 107t-133 40.5zM47 -404v1253l181 -1v-104q93 129 262 129q125 0 215.5 -65t136 -169t45.5 -221q0 -116 -44 -217t-132.5 -163
t-212.5 -62q-169 0 -270 127v-507h-181z" />
    <glyph glyph-name="q" unicode="q" 
d="M686 103q-40 -61 -112 -94q-71 -33 -158 -33q-110 0 -199 58q-90 59 -141 162q-52 104 -52 232q0 125 54 227q52 102 144.5 160t205.5 58q174 0 258 -129v105l181 -1v-1252h-181v507zM455 713q-78 0 -134.5 -41t-85 -109t-28.5 -143q0 -74 28.5 -141t85 -108.5
t134.5 -41.5t133.5 41.5t84 109t28.5 142.5t-28 142t-84 108t-134 41z" />
    <glyph glyph-name="r" unicode="r" horiz-adv-x="568" 
d="M36 0h178l1 428q0 124 47 195q47 72 125 72q47 0 111 -29l94 162q-75 39 -151 39q-147 0 -226 -123v104h-179v-848z" />
    <glyph glyph-name="s" unicode="s" horiz-adv-x="613" 
d="M-1 133q110 -166 302 -166q88 0 156 34.5t105.5 99t37.5 149.5q0 98 -56 156.5t-210 120.5q-58 23 -82.5 47.5t-24.5 60.5q0 78 68 78q38 0 82 -19.5t72 -44.5l119 99q-62 73 -116 103t-130 30q-121 0 -200.5 -74t-79.5 -184q0 -94 49 -150q50 -57 175 -112
q85 -37 115 -65t30 -70q0 -45 -29.5 -71t-80.5 -26q-85 0 -168 101z" />
    <glyph glyph-name="t" unicode="t" horiz-adv-x="482" 
d="M7 699h126v-699h181v699h163v149h-163v328h-181v-328h-126v-149z" />
    <glyph glyph-name="u" unicode="u" horiz-adv-x="828" 
d="M781 848h-181v-420q0 -149 -45 -217.5t-143 -68.5q-109 0 -147 81t-38 205v420h-180v-491q0 -122 42.5 -207.5t125 -130t197.5 -44.5q116 0 199 45t127 130q43 86 43 207v491z" />
    <glyph glyph-name="v" unicode="v" horiz-adv-x="828" 
d="M-21 848l433 -912l440 912h-213l-215 -528l-231 528h-214z" />
    <glyph glyph-name="w" unicode="w" horiz-adv-x="1356" 
d="M0 848l428 -912l250 582l252 -582l424 912h-204l-216 -528l-252 598l-254 -598l-219 528h-209z" />
    <glyph glyph-name="x" unicode="x" horiz-adv-x="875" 
d="M-17 0h217l236 320l242 -320h211l-334 453l297 395h-217l-190 -266l-205 266h-212l293 -395z" />
    <glyph glyph-name="y" unicode="y" 
d="M0 848h215l258 -487l234 487h203l-619 -1252h-197l285 570z" />
    <glyph glyph-name="z" unicode="z" horiz-adv-x="875" 
d="M-4 0h853v158h-515l541 690h-789v-162h457z" />
    <glyph glyph-name="quotedblbase" unicode="&#x201e;" horiz-adv-x="658" 
d="M0 -242l129 -53l240 461l-176 64zM293 -242l131 -53l238 461l-176 64z" />
    <glyph glyph-name="dagger" unicode="&#x2020;" 
d="M20 748h353v-25v-1030h172v20v1035h352v151h-352v459h-172v-459h-353v-151z" />
    <glyph glyph-name="circumflex" unicode="&#x2c6;" horiz-adv-x="305" 
d="M-271 1006h160l111 145l115 -145h156l-181 266h-180z" />
    <glyph glyph-name="perthousand" unicode="&#x2030;" horiz-adv-x="1929" 
d="M309 1358q-128 0 -216.5 -91.5t-88.5 -227.5q0 -86 41.5 -158.5t113.5 -115t159 -42.5q84 0 154.5 41.5t111.5 113t41 156.5q0 89 -42 164t-114.5 117.5t-159.5 42.5zM318 1209q73 0 113 -49.5t40 -116.5q0 -70 -41.5 -120t-115.5 -50q-75 0 -118 49t-43 117t45 119
q43 51 120 51zM180 -56h133l213 396l543 1039h-118l-222 -402zM951 602q-86 0 -157 -41q-70 -41 -110.5 -113t-40.5 -161q0 -131 91 -221.5t223 -90.5q85 0 155 40.5t110 110.5q40 71 40 157q0 87 -41 160.5t-112.5 116t-157.5 42.5zM957 457q72 0 113 -50q40 -49 40 -118
t-41 -119.5t-114 -50.5q-77 0 -119 50q-44 50 -44 118q0 67 45 118.5t120 51.5zM1616 602q-86 0 -158 -41t-112 -114q-41 -72 -41 -160t42 -159.5t115 -111.5q74 -41 162 -41q130 0 218 89q87 87 87 219q0 87 -42 160.5t-114 116t-157 42.5zM1620 457q72 0 113 -49.5
t41 -116.5q0 -71 -41 -121.5t-117 -50.5q-75 0 -117.5 50t-42.5 118q0 67 44.5 118.5t119.5 51.5z" />
    <glyph glyph-name="guilsinglleft" unicode="&#x2039;" horiz-adv-x="346" 
d="M-13 471l249 -374l117 61l-203 313l203 305l-113 72z" />
    <glyph glyph-name="OE" unicode="&#x152;" horiz-adv-x="1929" 
d="M1209 195v-195h725v166h-534v479h534v170h-534l-1 365h535v170h-725v-186q-199 219 -506 219q-196 0 -356 -94t-251.5 -257.5t-91.5 -361.5q0 -194 91.5 -353.5t251.5 -249.5q160 -92 356 -92q159 0 291 56.5t215 163.5zM707 1209q137 0 252.5 -71t182.5 -193t67 -267
q0 -146 -67 -268t-183.5 -193t-255.5 -71q-135 0 -248.5 70t-179.5 191t-66 267q0 150 65.5 272t179.5 192.5t253 70.5z" />
    <glyph glyph-name="quoteleft" unicode="&#x2018;" horiz-adv-x="346" 
d="M-13 914l177 -62l193 477l-129 50z" />
    <glyph glyph-name="quoteright" unicode="&#x2019;" horiz-adv-x="346" 
d="M-13 899l132 -47l238 459l-177 68z" />
    <glyph glyph-name="quotedblleft" unicode="&#x201c;" horiz-adv-x="658" 
d="M0 914l176 -62l193 477l-129 50zM293 914l176 -62l193 477l-127 50z" />
    <glyph glyph-name="quotedblright" unicode="&#x201d;" horiz-adv-x="658" 
d="M0 899l129 -47l240 459l-176 68zM293 899l131 -47l238 459l-176 68z" />
    <glyph glyph-name="emdash" unicode="&#x2013;" horiz-adv-x="963" 
d="M20 396h931v157h-931v-157z" />
    <glyph glyph-name="endash" unicode="&#x2014;" horiz-adv-x="963" 
d="M20 396h931v157h-931v-157z" />
    <glyph glyph-name="tilde" unicode="&#x2dc;" horiz-adv-x="305" 
d="M-302 1086l87 -43l10 14q39 49 80 49q25 0 47 -11t58 -34q37 -23 64 -35t55 -12q135 0 206 186l-86 39q-35 -71 -84 -71q-22 0 -47 11t-65.5 34t-68 35t-57.5 12q-62 0 -107 -40q-45 -39 -92 -134z" />
    <glyph glyph-name="guilsinglright" unicode="&#x203a;" horiz-adv-x="346" 
d="M-13 158l120 -61l246 374l-250 377l-116 -72l206 -305z" />
    <glyph glyph-name="oe" unicode="&#x153;" horiz-adv-x="1571" 
d="M819 142q130 -171 330 -171q242 0 400 246l-146 88q-98 -172 -250 -172q-106 0 -168 68q-61 67 -67 190h635q-3 111 -13 168q-11 58 -39 111q-49 100 -139 151q-91 52 -196 52q-99 0 -191 -44.5t-151 -125.5q-84 97 -161 136q-76 38 -190 38q-130 0 -233.5 -59
t-160.5 -164q-59 -106 -59 -238q0 -123 59 -225t161.5 -161t228.5 -59q202 0 350 171zM477 713q78 0 138 -36q60 -35 94 -100q33 -64 33 -149q0 -137 -73 -216t-200 -79q-84 0 -143.5 40t-89.5 105q-29 65 -29 138q0 76 31 144q32 68 93 111q62 42 146 42zM934 530
q12 89 73 138t140 49t142 -49t76 -138h-431z" />
    <glyph glyph-name="nonbreakingspace" unicode="&#xa0;" horiz-adv-x="305" 
 />
    <glyph glyph-name="exclamdown" unicode="&#xa1;" horiz-adv-x="305" 
d="M129 1370q-54 0 -85.5 -35t-31.5 -83q0 -49 31.5 -84t85.5 -35t84 35q31 35 31 84q0 48 -31 83q-30 35 -84 35zM41 0h179l-1 1030h-178v-1030z" />
    <glyph glyph-name="cent" unicode="&#xa2;" horiz-adv-x="738" 
d="M387 -25v-196h127v196q63 9 102.5 22t108.5 46v215q-132 -112 -260 -112q-79 0 -137 33q-58 34 -88.5 97.5t-30.5 151.5q0 128 73 205q72 78 191 78q139 0 252 -117v217q-62 34 -103 47t-108 19v149h-127v-153q-118 -23 -201 -84t-126.5 -156.5t-43.5 -216.5
q0 -193 96 -307q97 -115 275 -134z" />
    <glyph glyph-name="sterling" unicode="&#xa3;" horiz-adv-x="963" 
d="M-5 522h219q17 -45 17 -108q0 -89 -43 -188q-63 -27 -102.5 -52.5t-90.5 -76.5l108 -126q101 76 180 76q59 0 132.5 -22l146.5 -44t133 -22q75 0 150 49.5t130 137.5l-121 100q-74 -98 -178 -98q-42 0 -85 12q-44 13 -111 38q-66 25 -108 36q33 88 33 182q0 49 -10 106
h244v136h-275q-65 122 -93 192.5t-28 122.5q0 67 36 124q34 57 92.5 90.5t126.5 33.5q257 0 274 -330l166 72q-1 92 -34 169.5t-92 135t-137 88.5t-169 31q-127 0 -230 -57q-105 -57 -164.5 -156t-59.5 -219q0 -80 22 -145t81 -152h-160v-136z" />
    <glyph glyph-name="section" unicode="&#xa7;" horiz-adv-x="828" 
d="M254 -13h-180q13 -151 99.5 -231t238.5 -80q151 0 244 80q94 79 94 207q0 86 -40 140q-41 55 -130 92q120 51 177.5 134t57.5 206q0 96 -34.5 166t-109 121.5t-194.5 89.5q-110 39 -156 75q-47 37 -47 86q0 51 43 85t107 34q131 0 156 -153h170q-6 152 -90 233
q-83 82 -236 82q-95 0 -170 -37q-75 -36 -117.5 -101t-42.5 -147q0 -79 36.5 -129.5t126.5 -91.5q-236 -88 -236 -334q0 -99 32.5 -169.5t105 -122.5t194.5 -95q122 -46 168.5 -82t46.5 -86q0 -55 -42 -88t-110 -33q-78 0 -117 35q-39 36 -45 114zM424 740q59 0 107 -29
t76 -78.5t28 -110.5q0 -99 -60.5 -158t-158.5 -59q-62 0 -110 26t-75 74.5t-27 112.5q0 98 62.5 160t157.5 62z" />
    <glyph glyph-name="dieresis" unicode="&#xa8;" horiz-adv-x="305" 
d="M-164 1247q-53 0 -81 -32.5t-28 -77.5q0 -44 28.5 -77.5t80.5 -33.5t81.5 33t29.5 78t-29 77.5t-82 32.5zM168 1247q-50 0 -78 -34t-28 -78q0 -43 28 -76t78 -33q52 0 80 33q29 33 29 78q0 46 -28 78t-81 32z" />
    <glyph glyph-name="guillemotleft" unicode="&#xab;" horiz-adv-x="613" 
d="M-17 471l249 -374l118 61l-205 313l205 305l-114 72zM424 471l207 305l-113 72l-252 -377l244 -374l119 61z" />
    <glyph glyph-name="acute" unicode="&#xb4;" horiz-adv-x="305" 
d="M-107 1010h131l238 254h-229z" />
    <glyph glyph-name="paragraph" unicode="&#xb6;" horiz-adv-x="1051" 
d="M490 -404h48v670v1035h195v-670v-1035h48v670v1035h243v49h-522q-175 0 -299.5 -80.5t-124.5 -247.5q0 -110 55.5 -181t149.5 -102.5t207 -31.5v-76v-1035z" />
    <glyph glyph-name="periodcentered" unicode="&#xb7;" horiz-adv-x="436" 
d="M215 836q-71 0 -112.5 -49t-41.5 -113q0 -63 40 -109q38 -47 108 -47q72 0 112 49t40 115q0 63 -38 108.5t-108 45.5z" />
    <glyph glyph-name="cedilla" unicode="&#xb8;" horiz-adv-x="305" 
d="M-173 -344q74 -35 171 -35q89 0 150 38t61 120q0 79 -53 99.5t-144 20.5l78 109h-86l-124 -154l34 -41q41 15 76 15q71 0 71 -58q0 -67 -90 -67q-41 0 -117 18z" />
    <glyph glyph-name="guillemotright" unicode="&#xbb;" horiz-adv-x="613" 
d="M-17 776l205 -305l-201 -313l116 -61l247 374l-251 377zM266 158l113 -61l252 374l-254 377l-111 -72l203 -305z" />
    <glyph glyph-name="questiondown" unicode="&#xbf;" horiz-adv-x="699" 
d="M682 316h-180q-9 -92 -45.5 -135.5t-106.5 -43.5q-60 0 -100.5 40t-40.5 102q0 49 31 84t102 65q136 53 167 68q31 16 71 51q74 71 74 172q0 75 -42 146t-112.5 114t-149.5 43q-92 0 -162 -36q-69 -37 -108 -104.5t-39 -158.5h182q6 66 38.5 99.5t84.5 33.5
q48 0 80.5 -32t32.5 -84q0 -81 -113 -117l-123 -53q-96 -35 -151.5 -112t-55.5 -171q0 -139 92 -227.5t238 -88.5q160 0 246.5 89t89.5 256zM338 1358q-55 0 -87 -36.5t-32 -86.5q0 -48 31.5 -83.5t87.5 -35.5q55 0 85 35.5t30 85.5t-30.5 85.5t-84.5 35.5z" />
    <glyph glyph-name="Agrave" unicode="&#xc0;" horiz-adv-x="1270" 
d="M-9 0h209l150 348h564l147 -348h217l-172 381l-463 1036l-178 -383zM407 500l224 526l221 -526h-445zM379 1659l242 -262h128l-136 262h-234z" />
    <glyph glyph-name="Aacute" unicode="&#xc1;" horiz-adv-x="1270" 
d="M-9 0h209l150 348h564l147 -348h217l-172 381l-463 1036l-178 -383zM407 500l224 526l221 -526h-445zM530 1397h131l236 262h-227z" />
    <glyph glyph-name="Acircumflex" unicode="&#xc2;" horiz-adv-x="1270" 
d="M-9 0h209l150 348h564l147 -348h217l-172 381l-463 1036l-178 -383zM407 500l224 526l221 -526h-445zM368 1397h158l113 147l111 -147h155l-180 266h-176z" />
    <glyph glyph-name="Atilde" unicode="&#xc3;" horiz-adv-x="1270" 
d="M-9 0h209l150 348h564l147 -348h217l-172 381l-463 1036l-178 -383zM407 500l224 526l221 -526h-445zM338 1479l78 -49l16 20q32 49 76 49q23 0 49.5 -12.5t64.5 -36t62 -34.5t49 -11q132 0 213 187l-88 45q-33 -78 -90 -78q-23 0 -45.5 10.5t-61.5 35t-69 37.5t-57 13
q-62 0 -108 -40.5t-89 -135.5z" />
    <glyph glyph-name="Adieresis" unicode="&#xc4;" horiz-adv-x="1270" 
d="M-9 0h209l150 348h564l147 -348h217l-172 381l-463 1036l-178 -383zM407 500l224 526l221 -526h-445zM469 1645q-49 0 -77 -36q-30 -36 -30 -83q0 -45 28.5 -79t78.5 -34q51 0 78.5 33.5t27.5 79.5q0 49 -27.5 84t-78.5 35zM807 1645q-49 0 -77 -36q-30 -36 -30 -83
q0 -45 28.5 -79t78.5 -34q49 0 77.5 34t28.5 79q0 48 -28 83q-29 36 -78 36z" />
    <glyph glyph-name="Aring" unicode="&#xc5;" horiz-adv-x="1270" 
d="M-9 0h209l150 348h564l147 -348h217l-172 381l-463 1036l-178 -383zM407 500l224 526l221 -526h-445zM635 1596q38 0 59 -25t21 -59q0 -36 -21.5 -61t-58.5 -25q-40 0 -62 25t-22 61q0 34 22 59t62 25zM635 1708q-87 0 -135 -58q-50 -58 -50 -136t50 -135q48 -58 135 -58
t135.5 58t48.5 137t-48.5 135.5t-135.5 56.5z" />
    <glyph glyph-name="AE" unicode="&#xc6;" horiz-adv-x="1749" 
d="M-5 0h197l146 340h559l154 -340h702l-63 166l-506 1l-218 487h531l-57 166h-547l-160 360h567l-61 170h-647l-139 -316zM399 496l210 502l222 -502h-432z" />
    <glyph glyph-name="Ccedilla" unicode="&#xc7;" horiz-adv-x="1094" 
d="M538 -13l-102 -133l29 -41q42 15 78 15q74 0 74 -58q0 -65 -90 -65q-55 0 -95 12l-28 4l-27 -65q81 -33 176 -33q88 0 147.5 37t59.5 119q0 79 -54 99.5t-147 20.5l58 76q57 -4 82 -4q218 0 374 101v233q-171 -147 -360 -147q-134 0 -245.5 67t-175.5 184
q-65 118 -65 261q0 148 64 266.5t176 185t250 66.5q102 0 184 -33t172 -108v233q-96 53 -179.5 76t-186.5 23q-142 0 -267 -54t-218 -150.5t-146 -226.5q-52 -130 -52 -278q0 -164 64.5 -307.5t181.5 -241.5t268 -134z" />
    <glyph glyph-name="Egrave" unicode="&#xc8;" horiz-adv-x="789" 
d="M50 0h722v166h-529v479h525v170h-525l1 365h528v170h-722v-316v-1034zM141 1659l236 -262h129l-141 262h-224z" />
    <glyph glyph-name="Eacute" unicode="&#xc9;" horiz-adv-x="789" 
d="M50 0h722v166h-529v479h525v170h-525l1 365h528v170h-722v-316v-1034zM291 1397h125l238 262h-226z" />
    <glyph glyph-name="Ecircumflex" unicode="&#xca;" horiz-adv-x="789" 
d="M50 0h722v166h-529v479h525v170h-525l1 365h528v170h-722v-316v-1034zM126 1397h161l104 147l115 -147h156l-180 266h-177z" />
    <glyph glyph-name="Edieresis" unicode="&#xcb;" horiz-adv-x="789" 
d="M50 0h722v166h-529v479h525v170h-525l1 365h528v170h-722v-316v-1034zM228 1645q-50 0 -79 -35.5t-29 -83.5q0 -46 28 -79.5t80 -33.5q50 0 79 34t29 79q0 48 -29 83.5t-79 35.5zM563 1645q-49 0 -77 -36q-30 -36 -30 -83q0 -45 28.5 -79t78.5 -34q52 0 80 34
q29 33 29 79q0 49 -29 84q-28 35 -80 35z" />
    <glyph glyph-name="Igrave" unicode="&#xcc;" horiz-adv-x="258" 
d="M33 0h191l-1 312v1038h-190v-316v-1034zM-127 1659l242 -262h125l-137 262h-230z" />
    <glyph glyph-name="Iacute" unicode="&#xcd;" horiz-adv-x="258" 
d="M33 0h190v312v1038h-190v-316v-1034zM24 1397h128l235 262h-227z" />
    <glyph glyph-name="Icircumflex" unicode="&#xce;" horiz-adv-x="258" 
d="M33 0h191l-1 312v1038h-190v-316v-1034zM-137 1397h158l108 147l111 -147h156l-181 266h-174z" />
    <glyph glyph-name="Idieresis" unicode="&#xcf;" horiz-adv-x="258" 
d="M33 0h190v312v1038h-190v-316v-1034zM-37 1645q-48 0 -76.5 -36t-28.5 -83q0 -44 28 -78.5t77 -34.5q51 0 79 33.5t28 79.5q0 49 -28 84t-79 35zM301 1645q-51 0 -80.5 -36t-29.5 -83q0 -44 29 -78q30 -35 81 -35q49 0 78 34t29 79q0 48 -29 83q-29 36 -78 36z" />
    <glyph glyph-name="Ntilde" unicode="&#xd1;" horiz-adv-x="1270" 
d="M37 0v1417l1007 -1021v954h191v-1397l-1007 1018v-971h-191zM334 1479q42 95 90 135.5t111 40.5q26 0 54 -12l32 -17.5l59 -33.5t44 -24q22 -11 46 -11q54 0 84 80l92 -45q-81 -187 -213 -187q-25 0 -49 11q-14 7 -58 33.5t-68 37.5q-27 12 -50 12q-20 0 -39 -12.5
t-33 -30.5l-20 -26z" />
    <glyph glyph-name="Ograve" unicode="&#xd2;" horiz-adv-x="1448" 
d="M721 1383q-194 0 -354 -95q-161 -94 -254 -258q-93 -163 -93 -360q0 -190 94.5 -352t255 -256.5t347.5 -94.5q200 0 364.5 93t257.5 254t93 356q0 197 -93 360.5t-256 258t-362 94.5zM721 1196q136 0 250.5 -69t181 -188t66.5 -261q0 -146 -65.5 -267t-179.5 -191
t-253 -70q-132 0 -246 70q-114 71 -180 192q-68 120 -68 262q0 143 66.5 263t180 189.5t247.5 69.5zM469 1659l238 -262h133l-141 262h-230z" />
    <glyph glyph-name="Oacute" unicode="&#xd3;" horiz-adv-x="1448" 
d="M721 1383q-194 0 -354 -95q-161 -94 -254 -258q-93 -163 -93 -360q0 -190 94.5 -352t255 -256.5t347.5 -94.5q200 0 364.5 93t257.5 254t93 356q0 197 -93 360.5t-256 258t-362 94.5zM721 1196q136 0 250.5 -69t181 -188t66.5 -261q0 -146 -65.5 -267t-179.5 -191
t-253 -70q-132 0 -246 70q-114 71 -180 192q-68 120 -68 262q0 143 66.5 263t180 189.5t247.5 69.5zM621 1397h129l237 262h-227z" />
    <glyph glyph-name="Ocircumflex" unicode="&#xd4;" horiz-adv-x="1448" 
d="M721 1383q-194 0 -354 -95q-161 -94 -254 -258q-93 -163 -93 -360q0 -190 94.5 -352t255 -256.5t347.5 -94.5q200 0 364.5 93t257.5 254t93 356q0 197 -93 360.5t-256 258t-362 94.5zM721 1196q136 0 250.5 -69t181 -188t66.5 -261q0 -146 -65.5 -267t-179.5 -191
t-253 -70q-132 0 -246 70q-114 71 -180 192q-68 120 -68 262q0 143 66.5 263t180 189.5t247.5 69.5zM459 1397h158l108 147l115 -147h156l-181 266h-176z" />
    <glyph glyph-name="Otilde" unicode="&#xd5;" horiz-adv-x="1448" 
d="M721 1383q-194 0 -354 -95q-161 -94 -254 -258q-93 -163 -93 -360q0 -190 94.5 -352t255 -256.5t347.5 -94.5q200 0 364.5 93t257.5 254t93 356q0 197 -93 360.5t-256 258t-362 94.5zM721 1196q136 0 250.5 -69t181 -188t66.5 -261q0 -146 -65.5 -267t-179.5 -191
t-253 -70q-132 0 -246 70q-114 71 -180 192q-68 120 -68 262q0 143 66.5 263t180 189.5t247.5 69.5zM428 1479l78 -49l12 20q35 49 76 49q24 0 50 -12t66 -36t64 -35q25 -11 50 -11q133 0 208 187l-81 45q-42 -78 -95 -78q-22 0 -43 10.5t-60 35.5q-38 24 -68 37t-60 13
q-64 0 -109 -39q-44 -40 -88 -137z" />
    <glyph glyph-name="Odieresis" unicode="&#xd6;" horiz-adv-x="1448" 
d="M721 1383q-194 0 -354 -95q-161 -94 -254 -258q-93 -163 -93 -360q0 -190 94.5 -352t255 -256.5t347.5 -94.5q200 0 364.5 93t257.5 254t93 356q0 197 -93 360.5t-256 258t-362 94.5zM721 1196q136 0 250.5 -69t181 -188t66.5 -261q0 -146 -65.5 -267t-179.5 -191
t-253 -70q-132 0 -246 70q-114 71 -180 192q-68 120 -68 262q0 143 66.5 263t180 189.5t247.5 69.5zM555 1645q-48 0 -75 -36t-27 -83q0 -45 26.5 -79t75.5 -34q52 0 80 34q29 33 29 79q0 49 -29 84q-28 35 -80 35zM893 1645q-48 0 -76 -36t-28 -83q0 -44 27.5 -78.5
t76.5 -34.5q51 0 80 34t29 79q0 48 -29 83.5t-80 35.5z" />
    <glyph glyph-name="Oslash" unicode="&#xd8;" horiz-adv-x="1448" 
d="M1200 1397l-94 -121q-176 107 -381 107q-196 0 -357.5 -94.5t-253.5 -257.5q-94 -164 -94 -361q0 -306 238 -528l-94 -129l90 -60l92 119q86 -51 187 -78t200 -27q191 0 351.5 94.5t254 256.5t93.5 352q0 163 -59 296t-180 243l98 124zM1073 1051q146 -149 146 -361
q0 -136 -62 -261t-177 -202t-259 -77q-130 0 -260 76zM991 1121l-614 -820q-150 162 -150 373q0 143 66.5 263t180 189.5t247.5 69.5q137 0 270 -75z" />
    <glyph glyph-name="Ugrave" unicode="&#xd9;" horiz-adv-x="1051" 
d="M1012 1350h-193v-893q0 -146 -75 -226.5t-209 -80.5q-142 0 -221 80q-78 81 -78 227v893h-193v-922q0 -104 34 -191q34 -86 99 -149q64 -62 153 -96q89 -33 198 -33q143 0 253 58.5t171 165t61 245.5v922zM275 1659l235 -262h134l-142 262h-227z" />
    <glyph glyph-name="Uacute" unicode="&#xda;" horiz-adv-x="1051" 
d="M1012 1350h-193v-893q0 -146 -75 -226.5t-209 -80.5q-142 0 -221 80q-78 81 -78 227v893h-193v-922q0 -104 34 -191q34 -86 99 -149q64 -62 153 -96q89 -33 198 -33q143 0 253 58.5t171 165t61 245.5v922zM424 1397h129l240 262h-234z" />
    <glyph glyph-name="Ucircumflex" unicode="&#xdb;" horiz-adv-x="1051" 
d="M1012 1350h-193v-893q0 -146 -75 -226.5t-209 -80.5q-142 0 -221 80q-78 81 -78 227v893h-193v-922q0 -104 34 -191q34 -86 99 -149q64 -62 153 -96q89 -33 198 -33q143 0 253 58.5t171 165t61 245.5v922zM262 1397h154l115 147l112 -147h156l-178 266h-176z" />
    <glyph glyph-name="Udieresis" unicode="&#xdc;" horiz-adv-x="1051" 
d="M1012 1350h-193v-893q0 -146 -75 -226.5t-209 -80.5q-142 0 -221 80q-78 81 -78 227v893h-193v-922q0 -104 34 -191q34 -86 99 -149q64 -62 153 -96q89 -33 198 -33q143 0 253 58.5t171 165t61 245.5v922zM361 1645q-49 0 -78 -36t-29 -83q0 -44 29 -78.5t78 -34.5
q51 0 78.5 33.5t27.5 79.5q0 49 -28 84t-78 35zM699 1645q-49 0 -78 -35q-28 -36 -28 -84q0 -45 28 -79q29 -34 78 -34q50 0 78 34q29 33 29 79q0 48 -29 83q-29 36 -78 36z" />
    <glyph glyph-name="Yacute" unicode="&#xdd;" horiz-adv-x="1051" 
d="M0 1350l428 -748v-602h197v602l426 748h-215l-305 -569l-303 569h-228zM416 1397h133l240 262h-234z" />
    <glyph glyph-name="germandbls" unicode="&#xdf;" horiz-adv-x="963" 
d="M-4 699h94v-699h180v963q0 321 212 321q88 0 138 -57.5t50 -157.5q0 -78 -26 -127q-26 -48 -82 -72q-56 -23 -147 -26v-145q133 -5 209 -33.5t110 -90.5t34 -167q0 -132 -57 -205.5t-158 -73.5q-72 0 -154 29v-158q72 -33 154 -33q121 0 212 53q92 52 141 150t49 230
q0 112 -39 197t-112 134t-173 58q115 32 168 103t53 194q0 103 -48 184.5t-135 126.5t-196 45q-121 0 -208 -54q-86 -54 -130.5 -159t-44.5 -256v-125h-94v-149z" />
    <glyph glyph-name="agrave" unicode="&#xe0;" 
d="M686 103v-103h181v848h-181v-104q-84 129 -258 129q-113 0 -205.5 -58t-145 -160t-52.5 -227q0 -128 51 -232q51 -103 140.5 -162t199.5 -59q86 0 157 33.5t113 94.5zM455 713q78 0 133 -41t84 -107q27 -67 27 -141q0 -76 -28.5 -144t-83.5 -109.5t-132 -41.5
q-78 0 -134.5 41.5t-85 108.5t-28.5 141q0 75 28.5 143t85 109t134.5 41zM205 1264l240 -254h127l-136 254h-231z" />
    <glyph glyph-name="aacute" unicode="&#xe1;" 
d="M686 103v-103h181v848h-181v-104q-84 129 -258 129q-113 0 -205.5 -58t-145 -160t-52.5 -227q0 -128 51 -232q51 -103 140.5 -162t199.5 -59q86 0 157 33.5t113 94.5zM455 713q78 0 133 -41t84 -107q27 -67 27 -141q0 -76 -28.5 -144t-83.5 -109.5t-132 -41.5
q-78 0 -134.5 41.5t-85 108.5t-28.5 141q0 75 28.5 143t85 109t134.5 41zM353 1010h133l235 254h-227z" />
    <glyph glyph-name="acircumflex" unicode="&#xe2;" 
d="M686 103v-103h181v848h-181v-104q-84 129 -258 129q-113 0 -205.5 -58t-145 -160t-52.5 -227q0 -128 51 -232q51 -103 140.5 -162t199.5 -59q86 0 157 33.5t113 94.5zM455 713q78 0 133 -41t84 -107q27 -67 27 -141q0 -76 -28.5 -144t-83.5 -109.5t-132 -41.5
q-78 0 -134.5 41.5t-85 108.5t-28.5 141q0 75 28.5 143t85 109t134.5 41zM193 1005h157l111 146l111 -146h157l-180 267h-176z" />
    <glyph glyph-name="atilde" unicode="&#xe3;" 
d="M686 103v-103h181v848h-181v-104q-84 129 -258 129q-113 0 -205.5 -58t-145 -160t-52.5 -227q0 -128 51 -232q51 -103 140.5 -162t199.5 -59q86 0 157 33.5t113 94.5zM455 713q78 0 133 -41t84 -107q27 -67 27 -141q0 -76 -28.5 -144t-83.5 -109.5t-132 -41.5
q-78 0 -134.5 41.5t-85 108.5t-28.5 141q0 75 28.5 143t85 109t134.5 41zM160 1086l80 -43l14 14q39 49 82 49q24 0 46.5 -11.5t58 -34.5t61.5 -34.5t53 -11.5q136 0 213 186l-86 39q-35 -71 -86 -71q-23 0 -46 10q-24 11 -65 34t-70 35.5t-58 12.5q-63 0 -107 -40
q-45 -39 -90 -134z" />
    <glyph glyph-name="adieresis" unicode="&#xe4;" 
d="M686 103v-103h181v848h-181v-104q-84 129 -258 129q-113 0 -205.5 -58t-145 -160t-52.5 -227q0 -128 51 -232q51 -103 140.5 -162t199.5 -59q86 0 157 33.5t113 94.5zM455 713q78 0 133 -41t84 -107q27 -67 27 -141q0 -76 -28.5 -144t-83.5 -109.5t-132 -41.5
q-78 0 -134.5 41.5t-85 108.5t-28.5 141q0 75 28.5 143t85 109t134.5 41zM293 1247q-49 0 -77 -32q-27 -33 -27 -78t27.5 -78t76.5 -33q51 0 79 33t28 78q0 46 -28 78q-27 32 -79 32zM631 1247q-50 0 -77 -32t-27 -78q0 -45 27 -78t77 -33q51 0 79 33t28 78q0 46 -28 78
q-27 32 -79 32z" />
    <glyph glyph-name="aring" unicode="&#xe5;" 
d="M686 103v-103h181v848h-181v-104q-84 129 -258 129q-113 0 -205.5 -58t-145 -160t-52.5 -227q0 -128 51 -232q51 -103 140.5 -162t199.5 -59q86 0 157 33.5t113 94.5zM455 713q78 0 133 -41t84 -107q27 -67 27 -141q0 -76 -28.5 -144t-83.5 -109.5t-132 -41.5
q-78 0 -134.5 41.5t-85 108.5t-28.5 141q0 75 28.5 143t85 109t134.5 41zM459 1209q38 0 59 -25.5t21 -60.5q0 -34 -21 -59t-59 -25q-39 0 -62.5 25.5t-23.5 58.5q0 34 23 60t63 26zM459 1315q-87 0 -136.5 -58.5t-49.5 -135.5q0 -78 50 -137q49 -58 136 -58q89 0 138 58
t49 137q0 78 -49 136t-138 58z" />
    <glyph glyph-name="ae" unicode="&#xe6;" horiz-adv-x="1448" 
d="M713 127q120 -154 317 -154q81 0 160 31q78 29 142 85t104 132l-150 76q-81 -164 -239 -164q-113 0 -175.5 65t-68.5 189h637q0 131 -44 242.5t-134 179.5t-221 68q-87 0 -160 -38q-74 -37 -160 -126q-40 56 -97 93q-57 38 -123 55q-66 18 -136 18q-122 0 -238 -51v-192
q52 37 119 59t133 22q95 0 160 -48.5t78 -154.5q-98 68 -244 68q-95 0 -178.5 -33.5t-135 -100t-51.5 -161.5q0 -89 47.5 -161t131.5 -113.5t186 -41.5q206 0 340 156zM416 453q91 0 150 -43q59 -42 59 -105q0 -79 -70.5 -125.5t-163.5 -46.5q-83 0 -142 41q-61 41 -61 117
q0 70 64.5 116t163.5 46zM819 522q17 91 79 140t141 49q78 0 140.5 -49.5t78.5 -139.5h-439z" />
    <glyph glyph-name="ccedilla" unicode="&#xe7;" horiz-adv-x="738" 
d="M352 -25l-94 -125l33 -37q35 13 74 13q76 0 76 -60q0 -63 -93 -63q-45 0 -120 18l-28 -65q82 -33 173 -33q88 0 147 37q60 37 60 119q0 120 -197 120l53 68q153 6 289 76v215q-122 -112 -256 -112q-79 0 -137 33q-59 34 -90 98t-31 151q0 129 78.5 201t189.5 72
q143 0 246 -107v213q-110 66 -241 66q-120 0 -227 -57q-106 -57 -171 -162q-66 -104 -66 -238q0 -111 41 -204t116.5 -155t174.5 -82z" />
    <glyph glyph-name="egrave" unicode="&#xe8;" horiz-adv-x="828" 
d="M832 217l-146 95q-99 -183 -254 -183q-70 0 -123.5 32t-85 92t-34.5 138h639q-6 127 -24 198t-62 128q-55 77 -139 118.5t-187 41.5q-92 0 -168 -32.5t-130.5 -93t-84 -147t-29.5 -188.5q0 -99 29.5 -182.5t85 -143.5t133.5 -92q77 -31 172 -31q259 0 408 250zM205 530
q40 187 223 187q84 0 138 -48t70 -139h-431zM160 1264l236 -254h131l-144 254h-223z" />
    <glyph glyph-name="eacute" unicode="&#xe9;" horiz-adv-x="828" 
d="M832 217l-146 95q-99 -183 -254 -183q-70 0 -123.5 32t-85 92t-34.5 138h639q-6 127 -24 198t-62 128q-55 77 -139 118.5t-187 41.5q-92 0 -168 -32.5t-130.5 -93t-84 -147t-29.5 -188.5q0 -99 29.5 -182.5t85 -143.5t133.5 -92q77 -31 172 -31q259 0 408 250zM205 530
q40 187 223 187q84 0 138 -48t70 -139h-431zM309 1010h132l234 254h-226z" />
    <glyph glyph-name="ecircumflex" unicode="&#xea;" horiz-adv-x="828" 
d="M832 217l-146 95q-99 -183 -254 -183q-70 0 -123.5 32t-85 92t-34.5 138h639q-6 127 -24 198t-62 128q-55 77 -139 118.5t-187 41.5q-92 0 -168 -32.5t-130.5 -93t-84 -147t-29.5 -188.5q0 -99 29.5 -182.5t85 -143.5t133.5 -92q77 -31 172 -31q259 0 408 250zM205 530
q40 187 223 187q84 0 138 -48t70 -139h-431zM146 1006h159l107 145l115 -145h156l-181 266h-176z" />
    <glyph glyph-name="edieresis" unicode="&#xeb;" horiz-adv-x="828" 
d="M832 217l-146 95q-99 -183 -254 -183q-70 0 -123.5 32t-85 92t-34.5 138h639q-6 127 -24 198t-62 128q-55 77 -139 118.5t-187 41.5q-92 0 -168 -32.5t-130.5 -93t-84 -147t-29.5 -188.5q0 -99 29.5 -182.5t85 -143.5t133.5 -92q77 -31 172 -31q259 0 408 250zM205 530
q40 187 223 187q84 0 138 -48t70 -139h-431zM248 1247q-51 0 -78.5 -33t-27.5 -79q0 -44 27 -76q28 -33 79 -33t79 33t28 78q0 46 -28 78q-27 32 -79 32zM588 1247q-52 0 -81 -32.5t-29 -77.5q0 -44 29 -77.5t81 -33.5q50 0 77 33q28 32 28 76q0 45 -28 78.5t-77 33.5z" />
    <glyph glyph-name="igrave" unicode="&#xec;" horiz-adv-x="258" 
d="M41 0h179l-1 848h-178v-848zM-127 1264l242 -255h125l-137 255h-230z" />
    <glyph glyph-name="iacute" unicode="&#xed;" horiz-adv-x="258" 
d="M41 0h178v848h-178v-848zM24 1009h128l235 255h-227z" />
    <glyph glyph-name="icircumflex" unicode="&#xee;" horiz-adv-x="258" 
d="M41 0h179l-1 848h-178v-848zM-137 1006h158l108 145l111 -145h156l-181 266h-174z" />
    <glyph glyph-name="idieresis" unicode="&#xef;" horiz-adv-x="258" 
d="M41 0h178v848h-178v-848zM-37 1247q-50 0 -78.5 -33t-28.5 -77t29 -77.5t78 -33.5q51 0 79 32.5t28 76.5q0 46 -28 79t-79 33zM301 1247q-52 0 -81 -33t-29 -77t29 -77.5t81 -33.5q49 0 78 32.5t29 76.5q0 45 -28.5 78.5t-78.5 33.5z" />
    <glyph glyph-name="ntilde" unicode="&#xf1;" horiz-adv-x="789" 
d="M37 0v849h178v-109q56 71 109.5 100t130.5 29q138 0 216.5 -88t78.5 -242v-539h-182v488q0 99 -42 153t-122 54q-86 0 -137.5 -71t-51.5 -192v-432h-178zM94 1086q44 96 88 135t109 39q29 0 56 -12q2 -1 53.5 -29t78.5 -40q26 -11 50 -11q52 0 88 71l82 -39
q-71 -186 -209 -186q-27 0 -53 12q-20 9 -65 36t-58 33q-22 11 -48 11q-27 0 -46 -14t-48 -49z" />
    <glyph glyph-name="ograve" unicode="&#xf2;" 
d="M459 877q-131 0 -234 -57.5t-160 -160t-57 -231.5q0 -132 56.5 -236.5t158.5 -161.5q102 -59 232 -59q133 0 238 56.5t163 159.5t58 233q0 132 -58 236.5t-162 162.5t-235 58zM461 713q82 0 141 -41t88.5 -108t29.5 -142q0 -73 -29.5 -140t-88 -108t-141.5 -41
q-84 0 -144 41.5t-90 107t-30 140.5q0 76 30 142t90 107.5t144 41.5zM205 1264l240 -254h127l-136 254h-231z" />
    <glyph glyph-name="oacute" unicode="&#xf3;" 
d="M459 877q-131 0 -234 -57.5t-160 -160t-57 -231.5q0 -132 56.5 -236.5t158.5 -161.5q102 -59 232 -59q133 0 238 56.5t163 159.5t58 233q0 132 -58 236.5t-162 162.5t-235 58zM461 713q82 0 141 -41t88.5 -108t29.5 -142q0 -73 -29.5 -140t-88 -108t-141.5 -41
q-84 0 -144 41.5t-90 107t-30 140.5q0 76 30 142t90 107.5t144 41.5zM353 1010h133l236 254h-228z" />
    <glyph glyph-name="ocircumflex" unicode="&#xf4;" 
d="M459 877q-131 0 -234 -57.5t-160 -160t-57 -231.5q0 -132 56.5 -236.5t158.5 -161.5q102 -59 232 -59q133 0 238 56.5t163 159.5t58 233q0 132 -58 236.5t-162 162.5t-235 58zM461 713q82 0 141 -41t88.5 -108t29.5 -142q0 -73 -29.5 -140t-88 -108t-141.5 -41
q-84 0 -144 41.5t-90 107t-30 140.5q0 76 30 142t90 107.5t144 41.5zM193 1006h157l111 145l111 -145h158l-181 266h-176z" />
    <glyph glyph-name="otilde" unicode="&#xf5;" 
d="M459 877q-131 0 -234 -57.5t-160 -160t-57 -231.5q0 -132 56.5 -236.5t158.5 -161.5q102 -59 232 -59q133 0 238 56.5t163 159.5t58 233q0 132 -58 236.5t-162 162.5t-235 58zM461 713q82 0 141 -41t88.5 -108t29.5 -142q0 -73 -29.5 -140t-88 -108t-141.5 -41
q-84 0 -144 41.5t-90 107t-30 140.5q0 76 30 142t90 107.5t144 41.5zM160 1086l80 -43l14 14q39 49 82 49q24 0 46.5 -11.5t58 -34.5t61.5 -34.5t53 -11.5q136 0 214 186l-87 39q-35 -71 -86 -71q-23 0 -46 10q-24 11 -65 34t-70 35.5t-58 12.5q-63 0 -107 -40
q-45 -39 -90 -134z" />
    <glyph glyph-name="odieresis" unicode="&#xf6;" 
d="M459 877q-131 0 -234 -57.5t-160 -160t-57 -231.5q0 -132 56.5 -236.5t158.5 -161.5q102 -59 232 -59q133 0 238 56.5t163 159.5t58 233q0 132 -58 236.5t-162 162.5t-235 58zM461 713q82 0 141 -41t88.5 -108t29.5 -142q0 -73 -29.5 -140t-88 -108t-141.5 -41
q-84 0 -144 41.5t-90 107t-30 140.5q0 76 30 142t90 107.5t144 41.5zM293 1247q-49 0 -77 -32q-27 -33 -27 -78t27.5 -78t76.5 -33q51 0 79 33t28 78q0 46 -28 78q-27 32 -79 32zM631 1247q-50 0 -77 -32t-27 -78q0 -45 27 -78t77 -33q51 0 79 33t28 78q0 46 -28 78
q-27 32 -79 32z" />
    <glyph glyph-name="oslash" unicode="&#xf8;" 
d="M776 922l-81 -103q-105 60 -224 60q-89 0 -172 -33t-149 -95q-65 -61 -103.5 -146.5t-38.5 -184.5q0 -208 138 -328l-84 -109l84 -59l77 105q107 -58 226 -58q90 0 173 32.5t149 92t104.5 142.5t38.5 182q0 203 -133 336l74 104zM670 615q52 -80 52 -195q0 -79 -37 -146
q-36 -67 -97 -105t-131 -38q-69 0 -127 35zM593 682l-339 -452q-32 51 -44 93q-13 43 -13 97q0 81 37 148t99 105t134 38q68 0 126 -29z" />
    <glyph glyph-name="ugrave" unicode="&#xf9;" horiz-adv-x="828" 
d="M781 848h-181v-420q0 -149 -45 -217.5t-143 -68.5q-109 0 -147 81t-38 205v420h-180v-491q0 -122 42.5 -207.5t125 -130t197.5 -44.5q116 0 199 45t127 130q43 86 43 207v491zM160 1264l236 -254h131l-144 254h-223z" />
    <glyph glyph-name="uacute" unicode="&#xfa;" horiz-adv-x="828" 
d="M781 848h-181v-420q0 -149 -45 -217.5t-143 -68.5q-109 0 -147 81t-38 205v420h-180v-491q0 -122 42.5 -207.5t125 -130t197.5 -44.5q116 0 199 45t127 130q43 86 43 207v491zM309 1010h131l234 254h-225z" />
    <glyph glyph-name="ucircumflex" unicode="&#xfb;" horiz-adv-x="828" 
d="M781 848h-181v-420q0 -149 -45 -217.5t-143 -68.5q-109 0 -147 81t-38 205v420h-180v-491q0 -122 42.5 -207.5t125 -130t197.5 -44.5q116 0 199 45t127 130q43 86 43 207v491zM146 1005h159l107 146l115 -146h155l-180 267h-176z" />
    <glyph glyph-name="udieresis" unicode="&#xfc;" horiz-adv-x="828" 
d="M781 848h-181v-420q0 -149 -45 -217.5t-143 -68.5q-109 0 -147 81t-38 205v420h-180v-491q0 -122 42.5 -207.5t125 -130t197.5 -44.5q116 0 199 45t127 130q43 86 43 207v491zM248 1247q-51 0 -78.5 -33t-27.5 -79q0 -44 27 -76q28 -33 79 -33t78.5 33t27.5 78
q0 46 -27 78t-79 32zM588 1247q-52 0 -81.5 -32.5t-29.5 -77.5q0 -44 29.5 -77.5t81.5 -33.5q50 0 77 32.5t27 76.5q0 45 -27.5 78.5t-76.5 33.5z" />
    <glyph glyph-name="yacute" unicode="&#xfd;" 
d="M0 848l379 -682l-285 -570h197l105 217l514 1035h-203l-234 -487l-258 487h-215zM350 1010h132l236 254h-228z" />
    <glyph glyph-name="ydieresis" unicode="&#xff;" 
d="M0 848l379 -682l-285 -570h197l105 217l514 1035h-203l-234 -487l-258 487h-215zM291 1247q-50 0 -78 -32.5t-28 -77.5t28.5 -78t77.5 -33t78 33t29 78t-28.5 77.5t-78.5 32.5zM629 1247q-51 0 -79 -32q-27 -33 -27 -78q0 -44 27 -77q28 -34 79 -34q49 0 78 33t29 78
t-29 78q-28 32 -78 32z" />
    <hkern u1="&#x2c;" u2="&#x31;" k="201" />
    <hkern u1="&#x2e;" u2="&#x31;" k="199" />
    <hkern u1="&#x34;" u2="&#x31;" k="80" />
    <hkern u1="&#x37;" u2="&#x39;" k="41" />
    <hkern u1="&#x37;" u2="&#x38;" k="60" />
    <hkern u1="&#x37;" u2="&#x36;" k="283" />
    <hkern u1="&#x37;" u2="&#x34;" k="342" />
    <hkern u1="&#x37;" u2="&#x2e;" k="199" />
    <hkern u1="&#x37;" u2="&#x2c;" k="201" />
    <hkern u1="A" u2="y" k="242" />
    <hkern u1="A" u2="w" k="242" />
    <hkern u1="A" u2="v" k="240" />
    <hkern u1="A" u2="u" k="78" />
    <hkern u1="A" u2="t" k="78" />
    <hkern u1="A" u2="q" k="80" />
    <hkern u1="A" u2="o" k="80" />
    <hkern u1="A" u2="g" k="78" />
    <hkern u1="A" u2="f" k="101" />
    <hkern u1="A" u2="e" k="80" />
    <hkern u1="A" u2="d" k="80" />
    <hkern u1="A" u2="c" k="78" />
    <hkern u1="A" u2="a" k="80" />
    <hkern u1="A" u2="Y" k="303" />
    <hkern u1="A" u2="W" k="301" />
    <hkern u1="A" u2="V" k="301" />
    <hkern u1="A" u2="U" k="101" />
    <hkern u1="A" u2="T" k="199" />
    <hkern u1="A" u2="S" k="41" />
    <hkern u1="A" u2="Q" k="160" />
    <hkern u1="A" u2="O" k="162" />
    <hkern u1="A" u2="G" k="160" />
    <hkern u1="A" u2="C" k="162" />
    <hkern u1="B" u2="Y" k="162" />
    <hkern u1="B" u2="O" k="21" />
    <hkern u1="B" u2="G" k="21" />
    <hkern u1="B" u2="C" k="21" />
    <hkern u1="B" u2="A" k="60" />
    <hkern u1="C" u2="y" k="121" />
    <hkern u1="C" u2="O" k="39" />
    <hkern u1="D" u2="Y" k="160" />
    <hkern u1="D" u2="X" k="160" />
    <hkern u1="D" u2="W" k="119" />
    <hkern u1="D" u2="V" k="121" />
    <hkern u1="D" u2="T" k="160" />
    <hkern u1="D" u2="J" k="180" />
    <hkern u1="D" u2="A" k="142" />
    <hkern u1="F" u2="o" k="41" />
    <hkern u1="F" u2="e" k="41" />
    <hkern u1="F" u2="a" k="39" />
    <hkern u1="F" u2="S" k="19" />
    <hkern u1="F" u2="A" k="199" />
    <hkern u1="F" u2="&#x2e;" k="199" />
    <hkern u1="F" u2="&#x2c;" k="201" />
    <hkern u1="G" u2="Y" k="142" />
    <hkern u1="G" u2="W" k="119" />
    <hkern u1="G" u2="V" k="121" />
    <hkern u1="G" u2="A" k="133" />
    <hkern u1="K" u2="y" k="199" />
    <hkern u1="K" u2="u" k="119" />
    <hkern u1="K" u2="o" k="121" />
    <hkern u1="K" u2="e" k="119" />
    <hkern u1="K" u2="a" k="119" />
    <hkern u1="K" u2="T" k="39" />
    <hkern u1="K" u2="O" k="199" />
    <hkern u1="K" u2="G" k="199" />
    <hkern u1="K" u2="C" k="199" />
    <hkern u1="L" u2="y" k="162" />
    <hkern u1="L" u2="Y" k="281" />
    <hkern u1="L" u2="W" k="283" />
    <hkern u1="L" u2="V" k="283" />
    <hkern u1="L" u2="T" k="242" />
    <hkern u1="L" u2="O" k="140" />
    <hkern u1="L" u2="G" k="142" />
    <hkern u1="L" u2="C" k="142" />
    <hkern u1="M" u2="Y" k="162" />
    <hkern u1="M" u2="W" k="142" />
    <hkern u1="M" u2="V" k="140" />
    <hkern u1="M" u2="O" k="60" />
    <hkern u1="O" u2="Y" k="180" />
    <hkern u1="O" u2="X" k="162" />
    <hkern u1="O" u2="W" k="119" />
    <hkern u1="O" u2="V" k="142" />
    <hkern u1="O" u2="T" k="162" />
    <hkern u1="O" u2="M" k="78" />
    <hkern u1="O" u2="A" k="162" />
    <hkern u1="P" u2="o" k="119" />
    <hkern u1="P" u2="e" k="121" />
    <hkern u1="P" u2="a" k="119" />
    <hkern u1="P" u2="Y" k="41" />
    <hkern u1="P" u2="A" k="199" />
    <hkern u1="P" u2="&#x2e;" k="301" />
    <hkern u1="P" u2="&#x2c;" k="301" />
    <hkern u1="R" u2="y" k="62" />
    <hkern u1="R" u2="o" k="99" />
    <hkern u1="R" u2="e" k="101" />
    <hkern u1="R" u2="a" k="101" />
    <hkern u1="R" u2="Y" k="121" />
    <hkern u1="R" u2="W" k="101" />
    <hkern u1="R" u2="V" k="101" />
    <hkern u1="R" u2="T" k="101" />
    <hkern u1="R" u2="O" k="62" />
    <hkern u1="R" u2="G" k="62" />
    <hkern u1="R" u2="C" k="60" />
    <hkern u1="S" u2="t" k="41" />
    <hkern u1="S" u2="Y" k="78" />
    <hkern u1="S" u2="V" k="78" />
    <hkern u1="S" u2="T" k="78" />
    <hkern u1="S" u2="A" k="62" />
    <hkern u1="T" u2="y" k="201" />
    <hkern u1="T" u2="w" k="199" />
    <hkern u1="T" u2="s" k="242" />
    <hkern u1="T" u2="r" k="201" />
    <hkern u1="T" u2="o" k="240" />
    <hkern u1="T" u2="g" k="242" />
    <hkern u1="T" u2="e" k="240" />
    <hkern u1="T" u2="c" k="242" />
    <hkern u1="T" u2="a" k="242" />
    <hkern u1="T" u2="S" k="41" />
    <hkern u1="T" u2="O" k="160" />
    <hkern u1="T" u2="G" k="162" />
    <hkern u1="T" u2="C" k="160" />
    <hkern u1="T" u2="A" k="199" />
    <hkern u1="T" u2="&#x3b;" k="78" />
    <hkern u1="T" u2="&#x2e;" k="162" />
    <hkern u1="T" u2="&#x2c;" k="160" />
    <hkern u1="U" u2="M" k="41" />
    <hkern u1="U" u2="A" k="80" />
    <hkern u1="U" u2="&#x2e;" k="41" />
    <hkern u1="U" u2="&#x2c;" k="39" />
    <hkern u1="V" u2="u" k="162" />
    <hkern u1="V" u2="o" k="242" />
    <hkern u1="V" u2="g" k="240" />
    <hkern u1="V" u2="e" k="240" />
    <hkern u1="V" u2="a" k="242" />
    <hkern u1="V" u2="S" k="62" />
    <hkern u1="V" u2="O" k="140" />
    <hkern u1="V" u2="M" k="160" />
    <hkern u1="V" u2="G" k="142" />
    <hkern u1="V" u2="C" k="142" />
    <hkern u1="V" u2="A" k="301" />
    <hkern u1="V" u2="&#x3b;" k="119" />
    <hkern u1="V" u2="&#x2e;" k="242" />
    <hkern u1="V" u2="&#x2c;" k="242" />
    <hkern u1="W" u2="y" k="142" />
    <hkern u1="W" u2="u" k="160" />
    <hkern u1="W" u2="r" k="160" />
    <hkern u1="W" u2="o" k="242" />
    <hkern u1="W" u2="e" k="242" />
    <hkern u1="W" u2="a" k="242" />
    <hkern u1="W" u2="S" k="60" />
    <hkern u1="W" u2="O" k="140" />
    <hkern u1="W" u2="M" k="162" />
    <hkern u1="W" u2="G" k="142" />
    <hkern u1="W" u2="C" k="140" />
    <hkern u1="W" u2="A" k="303" />
    <hkern u1="W" u2="&#x3b;" k="162" />
    <hkern u1="W" u2="&#x2e;" k="281" />
    <hkern u1="W" u2="&#x2c;" k="281" />
    <hkern u1="X" u2="y" k="162" />
    <hkern u1="X" u2="o" k="78" />
    <hkern u1="X" u2="e" k="80" />
    <hkern u1="X" u2="a" k="80" />
    <hkern u1="X" u2="S" k="41" />
    <hkern u1="X" u2="Q" k="183" />
    <hkern u1="X" u2="O" k="183" />
    <hkern u1="X" u2="G" k="183" />
    <hkern u1="X" u2="C" k="183" />
    <hkern u1="Y" u2="o" k="301" />
    <hkern u1="Y" u2="g" k="301" />
    <hkern u1="Y" u2="e" k="303" />
    <hkern u1="Y" u2="a" k="301" />
    <hkern u1="Y" u2="S" k="80" />
    <hkern u1="Y" u2="O" k="183" />
    <hkern u1="Y" u2="M" k="160" />
    <hkern u1="Y" u2="G" k="180" />
    <hkern u1="Y" u2="C" k="180" />
    <hkern u1="Y" u2="A" k="301" />
    <hkern u1="Y" u2="&#x3b;" k="160" />
    <hkern u1="Y" u2="&#x2e;" k="242" />
    <hkern u1="Y" u2="&#x2c;" k="240" />
    <hkern u1="Z" u2="y" k="119" />
    <hkern u1="b" u2="y" k="78" />
    <hkern u1="b" u2="w" k="62" />
    <hkern u1="b" u2="v" k="60" />
    <hkern u1="b" u2="t" k="39" />
    <hkern u1="b" u2="f" k="39" />
    <hkern u1="e" u2="y" k="62" />
    <hkern u1="e" u2="x" k="80" />
    <hkern u1="e" u2="w" k="60" />
    <hkern u1="e" u2="v" k="62" />
    <hkern u1="e" u2="t" k="39" />
    <hkern u1="e" u2="f" k="39" />
    <hkern u1="f" u2="&#xf6;" k="49" />
    <hkern u1="f" u2="&#xea;" k="39" />
    <hkern u1="f" u2="&#xe9;" k="39" />
    <hkern u1="f" u2="&#xe8;" k="39" />
    <hkern u1="f" u2="&#xe7;" k="47" />
    <hkern u1="f" u2="&#xe4;" k="49" />
    <hkern u1="f" u2="&#xe2;" k="49" />
    <hkern u1="f" u2="t" k="121" />
    <hkern u1="f" u2="o" k="47" />
    <hkern u1="f" u2="f" k="121" />
    <hkern u1="f" u2="e" k="39" />
    <hkern u1="f" u2="c" k="47" />
    <hkern u1="f" u2="a" k="49" />
    <hkern u1="h" u2="y" k="41" />
    <hkern u1="h" u2="w" k="62" />
    <hkern u1="h" u2="v" k="60" />
    <hkern u1="k" u2="&#xf6;" k="119" />
    <hkern u1="k" u2="&#xea;" k="119" />
    <hkern u1="k" u2="&#xe9;" k="119" />
    <hkern u1="k" u2="&#xe8;" k="121" />
    <hkern u1="k" u2="&#xe7;" k="119" />
    <hkern u1="k" u2="&#xe4;" k="121" />
    <hkern u1="k" u2="&#xe2;" k="121" />
    <hkern u1="k" u2="t" k="33" />
    <hkern u1="k" u2="s" k="41" />
    <hkern u1="k" u2="o" k="121" />
    <hkern u1="k" u2="g" k="119" />
    <hkern u1="k" u2="f" k="33" />
    <hkern u1="k" u2="e" k="119" />
    <hkern u1="k" u2="c" k="121" />
    <hkern u1="k" u2="a" k="119" />
    <hkern u1="m" u2="y" k="39" />
    <hkern u1="m" u2="w" k="41" />
    <hkern u1="m" u2="v" k="39" />
    <hkern u1="n" u2="y" k="47" />
    <hkern u1="n" u2="w" k="39" />
    <hkern u1="n" u2="v" k="41" />
    <hkern u1="o" u2="y" k="90" />
    <hkern u1="o" u2="x" k="99" />
    <hkern u1="o" u2="w" k="78" />
    <hkern u1="o" u2="v" k="78" />
    <hkern u1="o" u2="t" k="41" />
    <hkern u1="o" u2="f" k="41" />
    <hkern u1="p" u2="y" k="80" />
    <hkern u1="p" u2="x" k="78" />
    <hkern u1="p" u2="w" k="62" />
    <hkern u1="p" u2="f" k="39" />
    <hkern u1="r" u2="&#xf6;" k="80" />
    <hkern u1="r" u2="&#xea;" k="80" />
    <hkern u1="r" u2="&#xe9;" k="78" />
    <hkern u1="r" u2="&#xe8;" k="80" />
    <hkern u1="r" u2="&#xe7;" k="101" />
    <hkern u1="r" u2="&#xe4;" k="78" />
    <hkern u1="r" u2="&#xe2;" k="78" />
    <hkern u1="r" u2="o" k="80" />
    <hkern u1="r" u2="g" k="80" />
    <hkern u1="r" u2="e" k="80" />
    <hkern u1="r" u2="d" k="80" />
    <hkern u1="r" u2="c" k="99" />
    <hkern u1="r" u2="a" k="80" />
    <hkern u1="r" u2="&#x2e;" k="240" />
    <hkern u1="r" u2="&#x2c;" k="240" />
    <hkern u1="s" u2="y" k="41" />
    <hkern u1="s" u2="w" k="33" />
    <hkern u1="s" u2="v" k="39" />
    <hkern u1="s" u2="t" k="21" />
    <hkern u1="t" u2="&#xf6;" k="39" />
    <hkern u1="t" u2="&#xea;" k="39" />
    <hkern u1="t" u2="&#xe9;" k="41" />
    <hkern u1="t" u2="&#xe8;" k="39" />
    <hkern u1="t" u2="&#xe7;" k="41" />
    <hkern u1="t" u2="&#xe4;" k="41" />
    <hkern u1="t" u2="&#xe2;" k="39" />
    <hkern u1="t" u2="o" k="39" />
    <hkern u1="t" u2="e" k="39" />
    <hkern u1="t" u2="c" k="39" />
    <hkern u1="t" u2="a" k="41" />
    <hkern u1="v" u2="&#xf6;" k="62" />
    <hkern u1="v" u2="&#xea;" k="60" />
    <hkern u1="v" u2="&#xe9;" k="60" />
    <hkern u1="v" u2="&#xe8;" k="62" />
    <hkern u1="v" u2="&#xe4;" k="60" />
    <hkern u1="v" u2="&#xe2;" k="62" />
    <hkern u1="v" u2="o" k="60" />
    <hkern u1="v" u2="e" k="60" />
    <hkern u1="v" u2="a" k="62" />
    <hkern u1="v" u2="&#x2e;" k="201" />
    <hkern u1="v" u2="&#x2c;" k="201" />
    <hkern u1="w" u2="&#xf6;" k="80" />
    <hkern u1="w" u2="&#xe8;" k="78" />
    <hkern u1="w" u2="&#xe7;" k="80" />
    <hkern u1="w" u2="&#xe4;" k="80" />
    <hkern u1="w" u2="&#xe2;" k="80" />
    <hkern u1="w" u2="s" k="41" />
    <hkern u1="w" u2="o" k="78" />
    <hkern u1="w" u2="g" k="78" />
    <hkern u1="w" u2="e" k="80" />
    <hkern u1="w" u2="c" k="78" />
    <hkern u1="w" u2="a" k="80" />
    <hkern u1="w" u2="&#x2e;" k="201" />
    <hkern u1="w" u2="&#x2c;" k="201" />
    <hkern u1="x" u2="&#xf6;" k="101" />
    <hkern u1="x" u2="&#xea;" k="99" />
    <hkern u1="x" u2="&#xe7;" k="99" />
    <hkern u1="x" u2="&#xe4;" k="101" />
    <hkern u1="x" u2="&#xe2;" k="101" />
    <hkern u1="x" u2="o" k="99" />
    <hkern u1="x" u2="e" k="99" />
    <hkern u1="x" u2="c" k="101" />
    <hkern u1="x" u2="a" k="99" />
    <hkern u1="y" u2="&#xf6;" k="80" />
    <hkern u1="y" u2="&#xe7;" k="78" />
    <hkern u1="y" u2="&#xe4;" k="78" />
    <hkern u1="y" u2="&#xe2;" k="80" />
    <hkern u1="y" u2="s" k="41" />
    <hkern u1="y" u2="o" k="78" />
    <hkern u1="y" u2="e" k="78" />
    <hkern u1="y" u2="c" k="78" />
    <hkern u1="y" u2="a" k="80" />
    <hkern u1="y" u2="&#x2e;" k="199" />
    <hkern u1="y" u2="&#x2c;" k="201" />
    <hkern u1="&#xe8;" u2="y" k="62" />
    <hkern u1="&#xe8;" u2="x" k="78" />
    <hkern u1="&#xe8;" u2="w" k="62" />
    <hkern u1="&#xe8;" u2="v" k="62" />
    <hkern u1="&#xe8;" u2="t" k="41" />
    <hkern u1="&#xe8;" u2="f" k="39" />
    <hkern u1="&#xe9;" u2="y" k="60" />
    <hkern u1="&#xe9;" u2="x" k="78" />
    <hkern u1="&#xe9;" u2="w" k="60" />
    <hkern u1="&#xe9;" u2="v" k="60" />
    <hkern u1="&#xe9;" u2="t" k="39" />
    <hkern u1="&#xe9;" u2="f" k="41" />
    <hkern u1="&#xea;" u2="y" k="60" />
    <hkern u1="&#xea;" u2="x" k="78" />
    <hkern u1="&#xea;" u2="w" k="60" />
    <hkern u1="&#xea;" u2="v" k="60" />
    <hkern u1="&#xea;" u2="t" k="39" />
    <hkern u1="&#xea;" u2="f" k="41" />
    <hkern u1="&#xf6;" u2="y" k="92" />
    <hkern u1="&#xf6;" u2="x" k="101" />
    <hkern u1="&#xf6;" u2="w" k="78" />
    <hkern u1="&#xf6;" u2="v" k="78" />
    <hkern u1="&#xf6;" u2="t" k="39" />
    <hkern u1="&#xf6;" u2="f" k="39" />
  </font>
</defs></svg>
